mc16_13TeV:mc16_13TeV.364902.H7EG_Matchbox_dipole_jetjetNLO_JZ2WithSW.deriv.DAOD_JETM6.e7482_e5984_s3126_r10201_r10210_p3916
mc16_13TeV:mc16_13TeV.364903.H7EG_Matchbox_dipole_jetjetNLO_JZ3WithSW.deriv.DAOD_JETM6.e7482_e5984_s3126_r10201_r10210_p3916
mc16_13TeV:mc16_13TeV.364904.H7EG_Matchbox_dipole_jetjetNLO_JZ4WithSW.deriv.DAOD_JETM6.e7482_e5984_s3126_r10201_r10210_p3916
mc16_13TeV:mc16_13TeV.364905.H7EG_Matchbox_dipole_jetjetNLO_JZ5WithSW.deriv.DAOD_JETM6.e7482_e5984_s3126_r10201_r10210_p3916
mc16_13TeV:mc16_13TeV.364906.H7EG_Matchbox_dipole_jetjetNLO_JZ6WithSW.deriv.DAOD_JETM6.e7482_e5984_s3126_r10201_r10210_p3916
mc16_13TeV:mc16_13TeV.364907.H7EG_Matchbox_dipole_jetjetNLO_JZ7WithSW.deriv.DAOD_JETM6.e7482_e5984_s3126_r10201_r10210_p3916
mc16_13TeV:mc16_13TeV.364908.H7EG_Matchbox_dipole_jetjetNLO_JZ8WithSW.deriv.DAOD_JETM6.e7482_e5984_s3126_r10201_r10210_p3916
mc16_13TeV:mc16_13TeV.364909.H7EG_Matchbox_dipole_jetjetNLO_JZ9plusWithSW.deriv.DAOD_JETM6.e7482_e5984_s3126_r10201_r10210_p3916
mc16_13TeV:mc16_13TeV.364922.H7EG_Matchbox_angular_jetjetNLO_JZ2WithSW.deriv.DAOD_JETM6.e7482_e5984_s3126_r10201_r10210_p3929
mc16_13TeV:mc16_13TeV.364923.H7EG_Matchbox_angular_jetjetNLO_JZ3WithSW.deriv.DAOD_JETM6.e7482_e5984_s3126_r10201_r10210_p3929
mc16_13TeV:mc16_13TeV.364924.H7EG_Matchbox_angular_jetjetNLO_JZ4WithSW.deriv.DAOD_JETM6.e7482_e5984_s3126_r10201_r10210_p3929
mc16_13TeV:mc16_13TeV.364925.H7EG_Matchbox_angular_jetjetNLO_JZ5WithSW.deriv.DAOD_JETM6.e7482_e5984_s3126_r10201_r10210_p3929
mc16_13TeV:mc16_13TeV.364926.H7EG_Matchbox_angular_jetjetNLO_JZ6WithSW.deriv.DAOD_JETM6.e7482_e5984_s3126_r10201_r10210_p3929
mc16_13TeV:mc16_13TeV.364927.H7EG_Matchbox_angular_jetjetNLO_JZ7WithSW.deriv.DAOD_JETM6.e7482_e5984_s3126_r10201_r10210_p3929
mc16_13TeV:mc16_13TeV.364928.H7EG_Matchbox_angular_jetjetNLO_JZ8WithSW.deriv.DAOD_JETM6.e7482_e5984_s3126_r10201_r10210_p3929
mc16_13TeV:mc16_13TeV.364929.H7EG_Matchbox_angular_jetjetNLO_JZ9plusWithSW.deriv.DAOD_JETM6.e7482_e5984_s3126_r10201_r10210_p3929
